<?xml version="1.0" encoding="UTF-8" standalone="no"?>
<svg
   xmlns:dc="http://purl.org/dc/elements/1.1/"
   xmlns:cc="http://creativecommons.org/ns#"
   xmlns:rdf="http://www.w3.org/1999/02/22-rdf-syntax-ns#"
   xmlns:svg="http://www.w3.org/2000/svg"
   xmlns="http://www.w3.org/2000/svg"
   id="svg8"
   version="1.1"
   viewBox="0 0 110 600"
   height="600"
   width="110">
  <defs
     id="defs2" />
  <metadata
     id="metadata5">
    <rdf:RDF>
      <cc:Work
         rdf:about="">
        <dc:format>image/svg+xml</dc:format>
        <dc:type
           rdf:resource="http://purl.org/dc/dcmitype/StillImage" />
        <dc:title></dc:title>
      </cc:Work>
    </rdf:RDF>
  </metadata>
  <g
     id="btn_open">
    <rect
       y="10"
       x="10"
       height="40"
       width="40"
       id="rect815"
       style="opacity:1;vector-effect:none;fill:#373737;fill-opacity:1;stroke:none;stroke-width:1;stroke-linecap:round;stroke-linejoin:round;stroke-miterlimit:4;stroke-dasharray:none;stroke-dashoffset:0;stroke-opacity:1;paint-order:stroke fill markers" />
    <path
       id="path825"
       d="m 16,39 6,-10 h 23 l -6,10 H 16 v -18 h 11 l 3,4 h 9 v 4"
       style="opacity:1;vector-effect:none;fill:none;fill-opacity:1;stroke:#eaeaea;stroke-width:2;stroke-linecap:round;stroke-linejoin:round;stroke-miterlimit:4;stroke-dasharray:none;stroke-dashoffset:0;stroke-opacity:1;paint-order:stroke fill markers" />
  </g>
  <g
     id="btn_save">
    <rect
       style="opacity:1;vector-effect:none;fill:#373737;fill-opacity:1;stroke:none;stroke-width:1;stroke-linecap:round;stroke-linejoin:round;stroke-miterlimit:4;stroke-dasharray:none;stroke-dashoffset:0;stroke-opacity:1;paint-order:stroke fill markers"
       id="rect817"
       width="40"
       height="40"
       x="60"
       y="10" />
    <path
       d="m 86,32 -6,6 -6,-6 m 6,-8 v 14 m 5.5,-22 v 6 h 5 m -21,-6 v 28 h 21 V 22 l -5,-6 z"
       style="opacity:1;vector-effect:none;fill:none;fill-opacity:1;stroke:#eaeaea;stroke-width:2;stroke-linecap:round;stroke-linejoin:round;stroke-miterlimit:4;stroke-dasharray:none;stroke-dashoffset:0;stroke-opacity:1;paint-order:stroke fill markers"
       id="path825-7" />
  </g>
  <g
     id="btn_undo">
    <rect
       style="opacity:1;vector-effect:none;fill:#373737;fill-opacity:1;stroke:none;stroke-width:1;stroke-linecap:round;stroke-linejoin:round;stroke-miterlimit:4;stroke-dasharray:none;stroke-dashoffset:0;stroke-opacity:1;paint-order:stroke fill markers"
       id="rect821"
       width="40"
       height="40"
       x="10"
       y="60" />
    <path
       d="m 45,81 c 0,-7.5 -6,-10 -11,-10 -5,0 -11,2.5 -11,10 l 5e-5,8 m -7,-8 7,8 7,-8"
       style="opacity:1;vector-effect:none;fill:none;fill-opacity:1;stroke:#eaeaea;stroke-width:2;stroke-linecap:round;stroke-linejoin:round;stroke-miterlimit:4;stroke-dasharray:none;stroke-dashoffset:0;stroke-opacity:1;paint-order:stroke fill markers"
       id="path924" />
  </g>
  <g
     id="btn_line">
    <rect
       y="110"
       x="10"
       height="40"
       width="40"
       id="rect841"
       style="opacity:1;vector-effect:none;fill:#373737;fill-opacity:1;stroke:none;stroke-width:1;stroke-linecap:round;stroke-linejoin:round;stroke-miterlimit:4;stroke-dasharray:none;stroke-dashoffset:0;stroke-opacity:1;paint-order:stroke fill markers" />
    <path
       style="opacity:1;vector-effect:none;fill:none;fill-opacity:1;stroke:#eaeaea;stroke-width:2;stroke-linecap:round;stroke-linejoin:round;stroke-miterlimit:4;stroke-dasharray:none;stroke-dashoffset:0;stroke-opacity:1;paint-order:stroke fill markers"
       d="m 18,118 24,24"
       id="path843" />
    <circle
       style="opacity:1;vector-effect:none;fill:#eaeaea;fill-opacity:1;stroke:none;stroke-width:2;stroke-linecap:round;stroke-linejoin:round;stroke-miterlimit:4;stroke-dasharray:none;stroke-dashoffset:0;stroke-opacity:1;paint-order:stroke fill markers"
       id="path855"
       cx="18"
       cy="118"
       r="3" />
    <circle
       r="3"
       cy="142"
       cx="42"
       id="circle857"
       style="opacity:1;vector-effect:none;fill:#eaeaea;fill-opacity:1;stroke:none;stroke-width:2;stroke-linecap:round;stroke-linejoin:round;stroke-miterlimit:4;stroke-dasharray:none;stroke-dashoffset:0;stroke-opacity:1;paint-order:stroke fill markers" />
  </g>
  <g
     id="btn_free">
    <rect
       style="opacity:1;vector-effect:none;fill:#373737;fill-opacity:1;stroke:none;stroke-width:1;stroke-linecap:round;stroke-linejoin:round;stroke-miterlimit:4;stroke-dasharray:none;stroke-dashoffset:0;stroke-opacity:1;paint-order:stroke fill markers"
       id="rect826"
       width="40"
       height="40"
       x="60"
       y="110" />
    <path
       id="path828"
       d="m 68,138 c -1.599273,-3.59324 -1.884503,-8.02549 0,-12 5.222009,-11.01347 17.744547,18.61057 12,16 -11.499913,-5.22605 0.244148,-10.93903 10,-4 6.99018,4.9719 2,-20 2,-20"
       style="opacity:1;vector-effect:none;fill:none;fill-opacity:1;stroke:#eaeaea;stroke-width:2;stroke-linecap:round;stroke-linejoin:round;stroke-miterlimit:4;stroke-dasharray:none;stroke-dashoffset:0;stroke-opacity:1;paint-order:stroke fill markers" />
  </g>
</svg>
